{
    "name": "RickRobo",
    "tag": "RCHRDRNKL",
    "pilot": "Richard Santos Rankl",
    "mainFile": "BattleTanks/Rickbo/RickRobo.java",
    "supportFiles":[
        "BattleTanks/Rickbo/RickRobo.java",
        "BattleTanks/Rickbo/RickRobo.class"]
}
